<?xml version="1.0" encoding="utf-8"?>
<!-- Generator: Adobe Illustrator 23.1.0, SVG Export Plug-In . SVG Version: 6.00 Build 0)  -->
<svg version="1.1" id="Layer_1" xmlns="http://www.w3.org/2000/svg" xmlns:xlink="http://www.w3.org/1999/xlink" x="0px" y="0px"
	 viewBox="0 0 866.1 166" style="enable-background:new 0 0 866.1 166;" xml:space="preserve">
<style type="text/css">
	.st0{fill:#FFFFFF;}
</style>
<g>
	<path class="st0" d="M762.8,100.2c0-11.9,0-23.9,0-35.8c0-1.5-0.1-3,0.1-4.5c0.3-2.3,1.2-4.2,3.8-4.5c2.8-0.4,4.4,1.4,5.2,3.7
		c0.4,1.2,0.4,2.6,0.4,3.9c0,14.8,0,29.6,0,44.4c0,3.7-0.5,7.1-4.6,8.4c-4.4,1.4-7.2-0.8-9.6-4.3c-8.6-12.5-17.3-24.8-26-37.2
		c-0.9-1.3-1.9-2.6-3.7-5c0,5.7,0,10.1,0,14.4c0,9,0,18,0,26.9c0,3.2-1.3,5.2-4.6,5.4c-3,0.1-4.7-1.7-4.7-4.6c0-16.6,0-33.3,0-49.9
		c0-3,1.9-4.9,4.7-5.8c2.9-0.9,5.7-0.3,7.7,2.1c2.5,3.1,4.8,6.3,7.1,9.6c7.7,11,15.3,22,22.9,33.1
		C762,100.5,762.4,100.4,762.8,100.2z"/>
	<path class="st0" d="M41.5,37.5c2.6,0.1,3.9,2,5.4,3.5c20.8,20.6,41.5,41.2,62.3,61.9c6.7,6.7,13.4,13.5,20.2,20
		c4,3.8,1.6,6.5-0.9,9.3c-2.8,3-5.3,3.1-8.4,0c-21.4-21.4-42.9-42.7-64.4-64c-6.3-6.2-12.6-12.4-18.9-18.5c-1.8-1.7-3.4-3.5-2.1-6.1
		C36.1,40.7,38.3,38.4,41.5,37.5z"/>
	<path class="st0" d="M520.4,85.5c0-8,0.1-16,0-24c0-3.3,1.1-5.9,4.6-5.9c9.3,0,18.7-1,27.9,0.8c6.5,1.3,12.2,4.3,14.3,11
		c2.3,7.4,0.9,14.3-5.5,19.3c-2,1.6-1.4,2.2,0.1,3.7c6.2,6.1,6.4,13.9,5.8,21.8c-0.2,2.6-2.1,3.6-4.6,3.5c-2.5-0.1-4.1-1.4-4.3-3.9
		c-0.4-3.5,0.1-7-0.9-10.4c-1.6-5.5-4.8-8.1-10.4-8.2c-4.7-0.1-9.3,0.1-14-0.1c-2.8-0.1-3.9,0.8-3.7,3.7c0.2,4.5,0,9,0.1,13.5
		c0,3.3-1.2,5.6-4.8,5.5c-3.4-0.1-4.4-2.3-4.4-5.4C520.4,102.1,520.4,93.8,520.4,85.5z M540.5,64.3c-11.7-0.1-11.7-0.1-11.7,10.7
		c0,9,0,9,9.3,9c5.1,0,10.4,0.5,15.1-2.1c3.7-2,5.6-5.1,5.1-9.4c-0.4-4-3-6-6.7-7.1C547.8,64.3,543.8,64.5,540.5,64.3z"/>
	<path class="st0" d="M796.3,85.5c0-7.6,0.1-15.3,0-22.9c-0.1-4.6,1.7-6.8,6.4-6.6c5.5,0.2,11-0.1,16.5,0.1
		c17.1,0.6,29.2,12.9,29.2,29.6c0,16.8-11.9,29.2-28.9,29.9c-5.6,0.2-11.3,0.1-16.9,0.2c-4.4,0.1-6.3-2-6.2-6.4
		C796.4,101.4,796.3,93.5,796.3,85.5z M805.4,85.3c0,6,0.1,12-0.1,17.9c-0.1,2.6,0.7,3.5,3.4,3.4c4-0.2,8,0.1,12-0.2
		c9.6-0.8,16.9-7.8,17.9-17.1c1.3-11.9-3.6-20.5-13.7-23.6c-4.9-1.5-9.9-1.1-14.8-1.5c-3.6-0.2-5.1,0.7-4.8,4.6
		C805.6,74.3,805.4,79.8,805.4,85.3z"/>
	<path class="st0" d="M384.7,85.6c0-8,0-16,0-24c0-3,0.3-6,4.1-6.2c4-0.3,5.1,2.6,5.1,5.9c0.1,5.3,0.2,10.6,0,16
		c-0.1,2.9,0.7,4.2,3.9,4.1c7.5-0.2,15-0.2,22.5,0c2.9,0.1,3.7-1.1,3.6-3.8c-0.2-5.3,0-10.6,0-16c0-3.3,0.7-6.2,4.8-6.2
		c4,0.1,4.7,3,4.7,6.3c0,16,0,31.9,0,47.9c0,3.4-0.8,6.2-4.8,6.2c-4,0-4.8-2.8-4.8-6.2c0-5.5-0.1-11,0-16.5c0-2.4-0.8-3.2-3.2-3.2
		c-7.8,0.1-15.7,0.1-23.5,0c-2.7-0.1-3.4,1.1-3.3,3.5c0.1,5.5,0.1,11,0,16.5c0,3.1-0.9,5.8-4.7,5.8c-3.8,0-4.6-2.6-4.6-5.8
		C384.7,101.9,384.7,93.8,384.7,85.6z"/>
	<path class="st0" d="M457.8,85.6c0-7.7,0-15.3,0-23c0-5.9,1.2-7.1,6.9-7.1c9.8,0,19.6,0,29.5,0c3.4,0,6.2,0.8,6.2,4.8
		c0,4-3.2,4.1-6.1,4c-7.8-0.1-15.6,0-23.5-0.3c-2.8-0.1-3.7,0.7-3.7,3.6c-0.3,13-0.4,13,12.3,13c4.3,0,8.7-0.1,13,0
		c3,0.1,5.2,1.5,5.1,4.8c-0.1,3.2-2.3,4.3-5.1,4.3c-6.8,0.1-13.7,0.2-20.5,0c-3.6-0.1-4.9,0.6-4.9,4.6c0.1,12.1,0,12.1,12.1,12.1
		c5.2,0,10.3,0.1,15.5,0c3.2,0,5.9,0.7,5.8,4.5c-0.1,3.6-2.7,4.5-5.9,4.5c-10.2,0-20.3-0.1-30.5,0c-4.6,0.1-6.3-2.1-6.2-6.4
		C457.9,101.3,457.8,93.4,457.8,85.6z"/>
	<path class="st0" d="M673.1,55.4c3.3-0.1,5.2,1.5,6.4,4.2c6.9,16.2,13.8,32.4,20.6,48.6c1.1,2.7,1.7,5.9-1.8,7.3
		c-3.7,1.5-6.2-0.4-7.1-4.1c-1.9-8.5-4.8-11.3-15.7-10.2l-3.5,0c-9.1-1-15.7,0.6-17.8,10.9c-0.7,3.4-3.6,4.9-7,3.4
		c-3.1-1.4-2.9-4.2-1.7-6.9c6.9-16.2,13.9-32.3,20.9-48.5C667.8,57.1,669.7,54.9,673.1,55.4z M672.9,68.2
		c-3.1,7.4-5.8,14.2-8.7,20.8c-1.1,2.6-0.2,3.1,2.2,3c4.5-0.1,8.9-0.1,13.4,0c2.1,0,3.2-0.4,2.2-2.8C679,82.5,676.1,75.7,672.9,68.2
		z"/>
	<path class="st0" d="M208.1,116.3c-7.4-0.2-13.3-1.1-18.9-3.4c-2.9-1.2-5.2-2.9-3.9-6.4c1.4-3.6,4.3-2.9,7.1-1.9
		c7.2,2.7,14.5,3.3,22.1,1.8c3.8-0.8,6.4-3,6.7-7c0.3-3.8-2.6-5.5-5.8-6.5c-4.8-1.5-9.6-2.8-14.4-4.2c-11.2-3.3-16.2-9-15.5-17.8
		c0.6-8.4,7.7-14.8,18.2-16.2c6.9-0.9,13.6,0.1,20.2,2.3c2.9,1,4.7,2.8,3.7,6c-1.1,3.4-3.7,3.3-6.5,2.3c-4.8-1.8-9.8-2-14.8-1.8
		c-2.9,0.1-5.6,0.9-8,2.5c-4.6,3.1-4.6,8.4,0,11.4c2.5,1.7,5.5,2.4,8.4,3.2c4.5,1.2,9,2.3,13.4,3.9c5.8,2,9.5,5.9,10.1,12.3
		c0.6,6.8-1.9,12-7.6,15.7C217.7,115.7,212.3,116.2,208.1,116.3z"/>
	<path class="st0" d="M249.5,77.9c0-5.7,0-11.3,0-17c0-3.1,0.9-5.4,4.3-5.5c3.6,0,4.8,2.3,4.7,5.6c-0.1,10-0.1,20,0,29.9
		c0.2,12.8,9.3,19.4,21.6,15.7c6.7-2,10-6.5,10.2-14.8c0.2-9.8,0.1-19.6,0.1-29.4c0-3.2-0.4-6.9,4.2-7c4.5-0.1,5.1,3.4,5,7
		c-0.1,10.6,0.1,21.3-0.2,31.9c-0.4,12.9-11.4,22.2-25.5,21.9c-14.2-0.3-24.3-9.8-24.4-23C249.5,88.2,249.5,83,249.5,77.9z"/>
	<path class="st0" d="M346.3,89.3c0,7-0.1,14,0,20.9c0.1,3.6-1.2,6-5,5.9c-3.8-0.1-4.3-2.9-4.3-6c0-13.6-0.1-27.3,0.1-40.9
		c0-3.4-0.8-4.8-4.4-4.6c-3.8,0.3-7.7,0.1-11.5,0.1c-2.8,0-5.1-1-5.1-4.2c0-3,1.9-4.5,4.8-4.5c13.8,0,27.6,0,41.4,0
		c2.7,0,4.6,1.3,4.5,4.1c0,2.8-1.8,4.2-4.5,4.2c-4.2,0-8.3,0.2-12.5,0c-2.8-0.1-3.8,0.8-3.7,3.6C346.4,75,346.3,82.2,346.3,89.3z"/>
	<path class="st0" d="M67.9,113.5c-4.5,0.4-8-1.3-11.2-4.4c-11.6-11-23.2-21.8-34.9-32.7C18.5,73.3,18.5,65,22,62.2
		c2.6-2.1,4.7-0.3,6.5,1.5c9.3,8.8,18.5,17.6,27.8,26.4c5,4.8,10.1,9.6,15.1,14.5c1.8,1.7,5,2.9,3.8,6.3
		C74,114.4,70.6,113.2,67.9,113.5z"/>
	<path class="st0" d="M96.7,57.9c4.2-0.1,7.6,1.3,10.8,4.3c11.9,11.4,24,22.5,35.9,33.9c3,2.8,2.4,11.7-1,13.9
		c-2.2,1.5-4,0.3-5.7-1.4C123.9,96.3,111,84,98.2,71.7c-2.2-2.1-4.3-4.2-6.4-6.3c-1.4-1.4-3.1-2.8-2.1-5.1c0.9-2.1,2.8-2.1,4.6-2.3
		C95.1,58.1,95.9,58,96.7,57.9z"/>
	<path class="st0" d="M590.1,84.9c0-7.8,0-15.6,0-23.4c0-3.1,0.4-5.9,4.3-6c4-0.1,4.9,2.7,4.9,6.1c0,13.5,0.2,26.9-0.1,40.4
		c-0.1,3.8,1,4.8,4.7,4.6c7-0.3,14,0,21-0.1c3.3,0,5.6,1,5.6,4.7c0,3.4-2.3,4.5-5.3,4.6c-9.5,0-19,0.1-28.5,0
		c-4.4,0-6.7-2.3-6.7-6.9C590.1,100.8,590.1,92.9,590.1,84.9z"/>
	<path class="st0" d="M71.9,150.2c-6-1.4-13-2.1-18.3-7.6c-8.5-8.7-17.3-17.1-25.9-25.6c-3.7-3.7-4-7.1-1.1-10
		c2.9-3,6.7-3.2,10.2,0.2c12.9,12.5,25.5,25.3,38.3,37.9c1.1,1.1,2.1,2.3,1.2,3.9C75.5,150.4,74,150.2,71.9,150.2z"/>
	<path class="st0" d="M93.6,21.7c6.9,1.4,13.8,2.8,19.3,8.6c7.8,8.4,16.3,16.1,24.4,24.2c3.9,3.9,4.3,7.3,1.3,10.4
		c-3,3.1-6.6,3.1-10.4-0.6C115.6,52,103.1,39.5,90.6,27.1c-1.1-1-2.4-2.1-1.7-3.8C89.8,21.4,91.6,21.7,93.6,21.7z"/>
	<path class="st0" d="M90.5,48c0.1,3-1.3,5.1-3.9,6.4c-2.7,1.4-5.2,1-7.3-1.1c-6.9-6.9-13.8-13.9-20.7-20.8c-2.9-2.9-2.3-5.2,1.3-7
		c6-3.1,8.4-2.8,13.1,2c4.9,5,9.7,10,14.5,15C89.1,44,90.6,45.6,90.5,48z"/>
	<path class="st0" d="M99.6,148.6c-3.2,0.3-4.4-0.7-5.6-1.9c-5.7-6-11.6-11.9-17.3-17.9c-3-3.2-2.9-6.9,0.1-9.7
		c3.3-3.1,6.5-2.6,9.6,0.5c6.4,6.5,13,12.9,19.4,19.4c4,4,3.5,6.1-1.7,8.2C102.2,147.9,100.2,148.4,99.6,148.6z"/>
</g>
</svg>
